{"paths":
  [
   {"primary_obj_ephem_path"  : "/Users/User/Documents/hera-ephemerides/thalassa-outputs/oneweb_planes/"},
   {"secondary_obj_ephem_path": "/Users/User/Documents/hera-ephemerides/thalassa-outputs/tle_secondaries/"},
   {"output_directory"        : "/Users/User/Documents/hera-ephemerides/test-ephems/"}
  ],

 "grid":
  [
   {"step"         : 1},
   {"initial_entry": 1},
   {"final_entry"  : "all"}
  ]
}  
 