Julian Date          , Semi-Major Axis      , Eccentricity         , Inclination          , RAAN                 , Argument of Perigee  , Mean Anomaly         

5.519700000000000E+04, 7.578000000000000E+03, 0.000000000000000E+00, 8.790000000000001E+01, 0.000000000000000E+00, 0.000000000000000E+00, 0.000000000000000E+00,
5.519700000000000E+04, 7.578000000000000E+03, 0.000000000000000E+00, 8.790000000000001E+01, 5.100000000000000E+00, 0.000000000000000E+00, 3.270000000000000E+00,
5.519700000000000E+04, 7.578000000000000E+03, 0.000000000000000E+00, 8.790000000000001E+01, 1.020000000000000E+01, 0.000000000000000E+00, 3.534500000000000E+02,
5.519700000000000E+04, 7.578000000000000E+03, 0.000000000000000E+00, 8.790000000000001E+01, 1.530000000000000E+01, 0.000000000000000E+00, 3.270000000000000E+00,
5.519700000000000E+04, 7.578000000000000E+03, 0.000000000000000E+00, 8.790000000000001E+01, 2.040000000000000E+01, 0.000000000000000E+00, 0.000000000000000E+00,
5.519700000000000E+04, 7.578000000000000E+03, 0.000000000000000E+00, 8.790000000000001E+01, 2.550000000000000E+01, 0.000000000000000E+00, 3.567300000000000E+02,
5.519700000000000E+04, 7.578000000000000E+03, 0.000000000000000E+00, 8.790000000000001E+01, 3.060000000000000E+01, 0.000000000000000E+00, 3.534500000000000E+02,
5.519700000000000E+04, 7.578000000000000E+03, 0.000000000000000E+00, 8.790000000000001E+01, 3.570000000000000E+01, 0.000000000000000E+00, 3.567300000000000E+02,
5.519700000000000E+04, 7.578000000000000E+03, 0.000000000000000E+00, 8.790000000000001E+01, 4.080000000000000E+01, 0.000000000000000E+00, 3.534500000000000E+02,
5.519700000000000E+04, 7.578000000000000E+03, 0.000000000000000E+00, 8.790000000000001E+01, 4.590000000000000E+01, 0.000000000000000E+00, 3.567300000000000E+02,
5.519700000000000E+04, 7.578000000000000E+03, 0.000000000000000E+00, 8.790000000000001E+01, 5.100000000000000E+01, 0.000000000000000E+00, 3.534500000000000E+02,
5.519700000000000E+04, 7.578000000000000E+03, 0.000000000000000E+00, 8.790000000000001E+01, 5.610000000000000E+01, 0.000000000000000E+00, 2.912700000000000E+02,
5.519700000000000E+04, 7.578000000000000E+03, 0.000000000000000E+00, 8.790000000000001E+01, 6.120000000000000E+01, 0.000000000000000E+00, 3.534500000000000E+02,
5.519700000000000E+04, 7.578000000000000E+03, 0.000000000000000E+00, 8.790000000000001E+01, 6.630000000000000E+01, 0.000000000000000E+00, 3.567300000000000E+02,
5.519700000000000E+04, 7.578000000000000E+03, 0.000000000000000E+00, 8.790000000000001E+01, 7.140000000000001E+01, 0.000000000000000E+00, 3.534500000000000E+02,
5.519700000000000E+04, 7.578000000000000E+03, 0.000000000000000E+00, 8.790000000000001E+01, 7.650000000000000E+01, 0.000000000000000E+00, 3.567300000000000E+02,
5.519700000000000E+04, 7.578000000000000E+03, 0.000000000000000E+00, 8.790000000000001E+01, 8.159999999999999E+01, 0.000000000000000E+00, 0.000000000000000E+00,
5.519700000000000E+04, 7.578000000000000E+03, 0.000000000000000E+00, 8.790000000000001E+01, 8.670000000000000E+01, 0.000000000000000E+00, 3.567300000000000E+02,
5.519700000000000E+04, 7.578000000000000E+03, 0.000000000000000E+00, 8.790000000000001E+01, 9.180000000000000E+01, 0.000000000000000E+00, 0.000000000000000E+00,
5.519700000000000E+04, 7.578000000000000E+03, 0.000000000000000E+00, 8.790000000000001E+01, 9.690000000000001E+01, 0.000000000000000E+00, 2.945000000000000E+01,